{
    "latest_category": [
        "电视"
    ],
    "latest_purchase_time": 1385481600,
    "curpage": 1,
    "totalpage": 1,
    "order_money": "7400.00",
    "goods": [{
        "product_model": "l48e4680an-3d",
        "category_name": "电视",
        "product_name": "彩电-48寸-l48e4680an-3d",
        "unit_price": "3700.00",
        "quantity": 2,
        "purchase_time": 1385481600
    }]
}