{
    "curpage": 1,
    "totalpage": 77156,
    "users": [{
        "mobile": "m9e631ec6cdfdf121c27fe6c049f48299",
        "name": "孙芹",
        "city": "枣庄市",
        "latest_purchase_time": 1396454400,
        "latest_marketing_time": ""
    }, {
        "mobile": "mf1c14dfef5e113453d95f778cb27d1a2",
        "name": "杨徳明",
        "city": "南宁市",
        "latest_purchase_time": 1399737600,
        "latest_marketing_time": ""
    }]
}